…
特定の基準に基づいて行を選択するには、`filter()`関数を使用できます。
データフレームの後の引数は、最終的なデータフレームが順守する条件です
(たとえば、continent列の値がAsiaなど)。
各条件の間にコンマを使用して、一連の条件を連鎖させることができます。

```{r filter-gapminder-one-condition}
# 1条件
filter(gapminder, continent == "Asia")
```

```
# A tibble: 396 x 6
   country      year      pop continent lifeExp gdpPercap
   <chr>       <dbl>    <dbl> <chr>       <dbl>     <dbl>
 1 Afghanistan  1952  8425333 Asia         28.8      779.
 2 Afghanistan  1957  9240934 Asia         30.3      821.
 3 Afghanistan  1962 10267083 Asia         32.0      853.
 4 Afghanistan  1967 11537966 Asia         34.0      836.
 5 Afghanistan  1972 13079460 Asia         36.1      740.
 6 Afghanistan  1977 14880372 Asia         38.4      786.
 7 Afghanistan  1982 12881816 Asia         39.9      978.
 8 Afghanistan  1987 13867957 Asia         40.8      852.
 9 Afghanistan  1992 16317921 Asia         41.7      649.
10 Afghanistan  1997 22227415 Asia         41.8      635.
# ... with 386 more rows
```

```{r filter-gapminder-multiple-conditions}
filter(gapminder, continent == "Asia", lifeExp > 40)
```

```
# A tibble: 371 x 6
   country      year      pop continent lifeExp gdpPercap
   <chr>       <dbl>    <dbl> <chr>       <dbl>     <dbl>
 1 Afghanistan  1987 13867957 Asia         40.8      852.
 2 Afghanistan  1992 16317921 Asia         41.7      649.
 3 Afghanistan  1997 22227415 Asia         41.8      635.
 4 Afghanistan  2002 25268405 Asia         42.1      727.
 5 Afghanistan  2007 31889923 Asia         43.8      975.
 6 Bahrain      1952   120447 Asia         50.9     9867.
 7 Bahrain      1957   138655 Asia         53.8    11636.
 8 Bahrain      1962   171863 Asia         56.9    12753.
 9 Bahrain      1967   202182 Asia         59.9    14805.
10 Bahrain      1972   230800 Asia         63.3    18269.
# ... with 361 more rows
```
…
最後のオプションであるパイプは、Rに最近追加されたものです。
パイプを使用すると、ある関数の出力を取得して次の関数に直接送信できます。
これは、同じデータセットに対して多くのことを行う必要がある場合に便利です。
Rのパイプは `%>%` で、`magrittr`パッケージを介して利用可能になり、`dplyr`で自動的にインストールされます。
RStudioを使用している場合は、PCなら Ctrl+Shift+m で、Macなら Cmd+Shift+m でパイプを入力できます。

```{r pipe}
gapminder %>%
    filter(continent == "Asia", lifeExp > 40) %>%
    select(country:lifeExp)
```

```
# A tibble: 371 x 5
   country      year      pop continent lifeExp
   <chr>       <dbl>    <dbl> <chr>       <dbl>
 1 Afghanistan  1987 13867957 Asia         40.8
 2 Afghanistan  1992 16317921 Asia         41.7
 3 Afghanistan  1997 22227415 Asia         41.8
 4 Afghanistan  2002 25268405 Asia         42.1
 5 Afghanistan  2007 31889923 Asia         43.8
 6 Bahrain      1952   120447 Asia         50.9
 7 Bahrain      1957   138655 Asia         53.8
 8 Bahrain      1962   171863 Asia         56.9
 9 Bahrain      1967   202182 Asia         59.9
10 Bahrain      1972   230800 Asia         63.3
# ... with 361 more rows
```
上記のコードでは、パイプを使用して、最初に`filter()`を介して`gapminder`データセットを送りこみ、
`continent`が"Asia"である行を保持し、次に`select()`を介して`country`列から`lifeExp`列までを保持します。
`%>%`は左側のオブジェクトを受け取り、それを右側の関数の最初の引数として渡すため、
`filter()`関数と`select()`関数の引数としてデータフレームを明示的に含める必要はありません。

新しいオブジェクトを作成する場合は、新しい名前を割り当てます:

```{r assign-new-name}
result <- gapminder %>%
    filter(continent == "Asia", lifeExp > 40) %>%
    select(country:lifeExp)
```

```
# A tibble: 371 x 5
   country      year      pop continent lifeExp
   <chr>       <dbl>    <dbl> <chr>       <dbl>
 1 Afghanistan  1987 13867957 Asia         40.8
 2 Afghanistan  1992 16317921 Asia         41.7
 3 Afghanistan  1997 22227415 Asia         41.8
 4 Afghanistan  2002 25268405 Asia         42.1
 5 Afghanistan  2007 31889923 Asia         43.8
 6 Bahrain      1952   120447 Asia         50.9
 7 Bahrain      1957   138655 Asia         53.8
 8 Bahrain      1962   171863 Asia         56.9
 9 Bahrain      1967   202182 Asia         59.9
10 Bahrain      1972   230800 Asia         63.3
# ... with 361 more rows
```
…
